…
## `group_by`+`summarise()`

`group_by`: don’t change any of the data, just add a layer on top of the
data set, change the behavior of functions used it.

``` r
weather_df %>% 
  group_by(name, month) 
```

    ## # A tibble: 1,095 × 7
    ## # Groups:   name, month [36]
    ##    name           id          date        prcp  tmax  tmin month     
    ##    <chr>          <chr>       <date>     <dbl> <dbl> <dbl> <date>    
    ##  1 CentralPark_NY USW00094728 2017-01-01     0   8.9   4.4 2017-01-01
    ##  2 CentralPark_NY USW00094728 2017-01-02    53   5     2.8 2017-01-01
    ##  3 CentralPark_NY USW00094728 2017-01-03   147   6.1   3.9 2017-01-01
    ##  4 CentralPark_NY USW00094728 2017-01-04     0  11.1   1.1 2017-01-01
    ##  5 CentralPark_NY USW00094728 2017-01-05     0   1.1  -2.7 2017-01-01
    ##  6 CentralPark_NY USW00094728 2017-01-06    13   0.6  -3.8 2017-01-01
    ##  7 CentralPark_NY USW00094728 2017-01-07    81  -3.2  -6.6 2017-01-01
    ##  8 CentralPark_NY USW00094728 2017-01-08     0  -3.8  -8.8 2017-01-01
    ##  9 CentralPark_NY USW00094728 2017-01-09     0  -4.9  -9.9 2017-01-01
    ## 10 CentralPark_NY USW00094728 2017-01-10     0   7.8  -6   2017-01-01
    ## # … with 1,085 more rows

### Counting things

- `group_by`+`summarise(n())`

``` r
weather_df %>% 
  group_by(name, month) %>% # can group by more than one variable
  summarise(n_obs = n())
```

    ## `summarise()` has grouped output by 'name'. You can override using the
    ## `.groups` argument.

    ## # A tibble: 36 × 3
    ## # Groups:   name [3]
    ##    name           month      n_obs
    ##    <chr>          <date>     <int>
    ##  1 CentralPark_NY 2017-01-01    31
    ##  2 CentralPark_NY 2017-02-01    28
    ##  3 CentralPark_NY 2017-03-01    31
    ##  4 CentralPark_NY 2017-04-01    30
    ##  5 CentralPark_NY 2017-05-01    31
    ##  6 CentralPark_NY 2017-06-01    30
    ##  7 CentralPark_NY 2017-07-01    31
    ##  8 CentralPark_NY 2017-08-01    31
    ##  9 CentralPark_NY 2017-09-01    30
    ## 10 CentralPark_NY 2017-10-01    31
    ## # … with 26 more rows

- `count()`

``` r
weather_df %>% 
  count(name,month,name = "n_obs")#the count column name, default to be "n"
```

    ## # A tibble: 36 × 3
    ##    name           month      n_obs
    ##    <chr>          <date>     <int>
    ##  1 CentralPark_NY 2017-01-01    31
    ##  2 CentralPark_NY 2017-02-01    28
    ##  3 CentralPark_NY 2017-03-01    31
    ##  4 CentralPark_NY 2017-04-01    30
    ##  5 CentralPark_NY 2017-05-01    31
    ##  6 CentralPark_NY 2017-06-01    30
    ##  7 CentralPark_NY 2017-07-01    31
    ##  8 CentralPark_NY 2017-08-01    31
    ##  9 CentralPark_NY 2017-09-01    30
    ## 10 CentralPark_NY 2017-10-01    31
    ## # … with 26 more rows
…
### Window functions

aggregate funcitons: n inputs, 1 output  
window functions: n inputs, n outputs

- `min_rank()`

``` r
weather_df %>%
  group_by(name, month) %>%
  mutate(temp_ranking = min_rank(tmax)) # min_rank(): one way of ranking 
```

    ## # A tibble: 1,095 × 8
    ## # Groups:   name, month [36]
    ##    name           id          date        prcp  tmax  tmin month      temp_ran…¹
    ##    <chr>          <chr>       <date>     <dbl> <dbl> <dbl> <date>          <int>
    ##  1 CentralPark_NY USW00094728 2017-01-01     0   8.9   4.4 2017-01-01         22
    ##  2 CentralPark_NY USW00094728 2017-01-02    53   5     2.8 2017-01-01         12
    ##  3 CentralPark_NY USW00094728 2017-01-03   147   6.1   3.9 2017-01-01         15
    ##  4 CentralPark_NY USW00094728 2017-01-04     0  11.1   1.1 2017-01-01         27
    ##  5 CentralPark_NY USW00094728 2017-01-05     0   1.1  -2.7 2017-01-01          5
    ##  6 CentralPark_NY USW00094728 2017-01-06    13   0.6  -3.8 2017-01-01          4
    ##  7 CentralPark_NY USW00094728 2017-01-07    81  -3.2  -6.6 2017-01-01          3
    ##  8 CentralPark_NY USW00094728 2017-01-08     0  -3.8  -8.8 2017-01-01          2
    ##  9 CentralPark_NY USW00094728 2017-01-09     0  -4.9  -9.9 2017-01-01          1
    ## 10 CentralPark_NY USW00094728 2017-01-10     0   7.8  -6   2017-01-01         21
    ## # … with 1,085 more rows, and abbreviated variable name ¹​temp_ranking

Useful when filtering data based on rank:

``` r
weather_df %>%
  group_by(name, month) %>%
  filter(min_rank(tmax) < 2)
```

    ## # A tibble: 42 × 7
    ## # Groups:   name, month [36]
    ##    name           id          date        prcp  tmax  tmin month     
    ##    <chr>          <chr>       <date>     <dbl> <dbl> <dbl> <date>    
    ##  1 CentralPark_NY USW00094728 2017-01-09     0  -4.9  -9.9 2017-01-01
    ##  2 CentralPark_NY USW00094728 2017-02-10     0   0    -7.1 2017-02-01
    ##  3 CentralPark_NY USW00094728 2017-03-15     0  -3.2  -6.6 2017-03-01
    ##  4 CentralPark_NY USW00094728 2017-04-01     0   8.9   2.8 2017-04-01
    ##  5 CentralPark_NY USW00094728 2017-05-13   409  11.7   7.2 2017-05-01
    ##  6 CentralPark_NY USW00094728 2017-06-06    15  14.4  11.1 2017-06-01
    ##  7 CentralPark_NY USW00094728 2017-07-25     0  21.7  16.7 2017-07-01
    ##  8 CentralPark_NY USW00094728 2017-08-29    74  20    16.1 2017-08-01
    ##  9 CentralPark_NY USW00094728 2017-09-30     0  18.9  12.2 2017-09-01
    ## 10 CentralPark_NY USW00094728 2017-10-31     0  13.9   7.2 2017-10-01
    ## # … with 32 more rows

``` r
# keep only the day with the lowest max temperature within each month
```

``` r
weather_df %>%
  group_by(name, month) %>%
  filter(min_rank(desc(tmax)) < 4)
```

    ## # A tibble: 149 × 7
    ## # Groups:   name, month [36]
    ##    name           id          date        prcp  tmax  tmin month     
    ##    <chr>          <chr>       <date>     <dbl> <dbl> <dbl> <date>    
    ##  1 CentralPark_NY USW00094728 2017-01-12    13  18.9   8.3 2017-01-01
    ##  2 CentralPark_NY USW00094728 2017-01-13     0  16.7   0   2017-01-01
    ##  3 CentralPark_NY USW00094728 2017-01-26     5  13.3   6.1 2017-01-01
    ##  4 CentralPark_NY USW00094728 2017-02-19     0  18.3  11.7 2017-02-01
    ##  5 CentralPark_NY USW00094728 2017-02-23     0  18.3   6.7 2017-02-01
    ##  6 CentralPark_NY USW00094728 2017-02-24     0  21.1  14.4 2017-02-01
    ##  7 CentralPark_NY USW00094728 2017-03-01    30  21.1  12.2 2017-03-01
    ##  8 CentralPark_NY USW00094728 2017-03-02     0  17.8   1.7 2017-03-01
    ##  9 CentralPark_NY USW00094728 2017-03-25     3  16.7   5.6 2017-03-01
    ## 10 CentralPark_NY USW00094728 2017-04-16     0  30.6  15   2017-04-01
    ## # … with 139 more rows
``` r
# keep the three days with the highest max temperature
```

- `lag()` used to compare an observation to it’s previous value:

``` r
weather_df %>%
  group_by(name) %>%
  mutate(
    yesterday_tmax = lag(tmax) # default lag one day; should group_by first
  )
```

    ## # A tibble: 1,095 × 8
    ## # Groups:   name [3]
    ##    name           id          date        prcp  tmax  tmin month      yesterda…¹
    ##    <chr>          <chr>       <date>     <dbl> <dbl> <dbl> <date>          <dbl>
    ##  1 CentralPark_NY USW00094728 2017-01-01     0   8.9   4.4 2017-01-01       NA  
    ##  2 CentralPark_NY USW00094728 2017-01-02    53   5     2.8 2017-01-01        8.9
    ##  3 CentralPark_NY USW00094728 2017-01-03   147   6.1   3.9 2017-01-01        5  
    ##  4 CentralPark_NY USW00094728 2017-01-04     0  11.1   1.1 2017-01-01        6.1
    ##  5 CentralPark_NY USW00094728 2017-01-05     0   1.1  -2.7 2017-01-01       11.1
    ##  6 CentralPark_NY USW00094728 2017-01-06    13   0.6  -3.8 2017-01-01        1.1
    ##  7 CentralPark_NY USW00094728 2017-01-07    81  -3.2  -6.6 2017-01-01        0.6
    ##  8 CentralPark_NY USW00094728 2017-01-08     0  -3.8  -8.8 2017-01-01       -3.2
    ##  9 CentralPark_NY USW00094728 2017-01-09     0  -4.9  -9.9 2017-01-01       -3.8
    ## 10 CentralPark_NY USW00094728 2017-01-10     0   7.8  -6   2017-01-01       -4.9
    ## # … with 1,085 more rows, and abbreviated variable name ¹​yesterday_tmax

``` r
weather_df %>%
  group_by(name) %>%
  mutate(temp_change = tmax - lag(tmax))
```

    ## # A tibble: 1,095 × 8
    ## # Groups:   name [3]
    ##    name           id          date        prcp  tmax  tmin month      temp_cha…¹
    ##    <chr>          <chr>       <date>     <dbl> <dbl> <dbl> <date>          <dbl>
    ##  1 CentralPark_NY USW00094728 2017-01-01     0   8.9   4.4 2017-01-01     NA    
    ##  2 CentralPark_NY USW00094728 2017-01-02    53   5     2.8 2017-01-01     -3.9  
    ##  3 CentralPark_NY USW00094728 2017-01-03   147   6.1   3.9 2017-01-01      1.1  
    ##  4 CentralPark_NY USW00094728 2017-01-04     0  11.1   1.1 2017-01-01      5    
    ##  5 CentralPark_NY USW00094728 2017-01-05     0   1.1  -2.7 2017-01-01    -10    
    ##  6 CentralPark_NY USW00094728 2017-01-06    13   0.6  -3.8 2017-01-01     -0.5  
    ##  7 CentralPark_NY USW00094728 2017-01-07    81  -3.2  -6.6 2017-01-01     -3.8  
    ##  8 CentralPark_NY USW00094728 2017-01-08     0  -3.8  -8.8 2017-01-01     -0.600
    ##  9 CentralPark_NY USW00094728 2017-01-09     0  -4.9  -9.9 2017-01-01     -1.10 
    ## 10 CentralPark_NY USW00094728 2017-01-10     0   7.8  -6   2017-01-01     12.7  
    ## # … with 1,085 more rows, and abbreviated variable name ¹​temp_change
…
